numpy==1.20.3
opencv-python==4.5.2.52
Keras-Preprocessing==1.1.2
matplotlib==3.3.3
requests==2.25.1
requests-oauthlib==1.3.0
tensorboard==2.5.0
tensorboard-data-server==0.6.1
tensorboard-plugin-wit==1.8.0
tensorflow==2.4.1
tensorflow-estimator==2.4.0
ttkthemes==3.2.2`